<?xml version="1.0" encoding="UTF-8" standalone="no"?>
<svg
   xmlns:dc="http://purl.org/dc/elements/1.1/"
   xmlns:cc="http://creativecommons.org/ns#"
   xmlns:rdf="http://www.w3.org/1999/02/22-rdf-syntax-ns#"
   xmlns:svg="http://www.w3.org/2000/svg"
   xmlns="http://www.w3.org/2000/svg"
   xmlns:sodipodi="http://sodipodi.sourceforge.net/DTD/sodipodi-0.dtd"
   xmlns:inkscape="http://www.inkscape.org/namespaces/inkscape"
   fill="#000000"
   height="48"
   viewBox="0 0 24 24"
   width="48"
   id="svg3386"
   version="1.1"
   inkscape:version="0.91 r13725"
   sodipodi:docname="ic_tunnel_disconnected_48px.svg">
  <metadata
     id="metadata3396">
    <rdf:RDF>
      <cc:Work
         rdf:about="">
        <dc:format>image/svg+xml</dc:format>
        <dc:type
           rdf:resource="http://purl.org/dc/dcmitype/StillImage" />
        <dc:title></dc:title>
      </cc:Work>
    </rdf:RDF>
  </metadata>
  <defs
     id="defs3394" />
  <sodipodi:namedview
     pagecolor="#ffffff"
     bordercolor="#666666"
     borderopacity="1"
     objecttolerance="10"
     gridtolerance="10"
     guidetolerance="10"
     inkscape:pageopacity="0"
     inkscape:pageshadow="2"
     inkscape:window-width="1350"
     inkscape:window-height="877"
     id="namedview3392"
     showgrid="false"
     inkscape:zoom="11.313709"
     inkscape:cx="26.474657"
     inkscape:cy="28.367782"
     inkscape:window-x="0"
     inkscape:window-y="0"
     inkscape:window-maximized="1"
     inkscape:current-layer="svg3386" />
  <path
     d="M0 0h24v24H0z"
     fill="none"
     id="path3388" />
  <path
     d="m 8.9473661,4.9974172 9.1060499,0 0.04033,9.2101008 1.90625,1.946439 L 20,4.9974172 C 20.000001,1.4974172 16.42,1 12,1 10.055635,1.0545143 7.5894066,1.1504185 5.9126557,2.0133359 M 4.9839605,2.6547554 C 4.3855949,3.2153688 4.014329,3.9723078 4,4.9974172 L 4,19.620973 6,19.617073 5.99227,4.9974172"
     id="path3390"
     inkscape:connector-curvature="0"
     inkscape:transform-center-x="0.072727273"
     inkscape:transform-center-y="0.43636364"
     sodipodi:nodetypes="ccccsccccccc" />
  <g
     inkscape:groupmode="layer"
     id="layer2"
     inkscape:label="Layer 1"
     style="display:inline">
    <path
       inkscape:connector-curvature="0"
       d="m 3.225135,2.8906508 c 2.8753695,2.8654461 14.842814,14.8509962 14.842814,14.8509962 0,0 -0.0041,1.470365 0.01552,1.885093 0.485758,0 0.326048,-0.0061 1.871659,-0.0061 l 1.27,-1.27 -16.73,-16.7299992 z"
       id="path3575"
       sodipodi:nodetypes="ccccccc" />
  </g>
</svg>
