<?xml version="1.0" encoding="UTF-8" standalone="no"?>
<svg
   xmlns:dc="http://purl.org/dc/elements/1.1/"
   xmlns:cc="http://creativecommons.org/ns#"
   xmlns:rdf="http://www.w3.org/1999/02/22-rdf-syntax-ns#"
   xmlns:svg="http://www.w3.org/2000/svg"
   xmlns="http://www.w3.org/2000/svg"
   xmlns:sodipodi="http://sodipodi.sourceforge.net/DTD/sodipodi-0.dtd"
   xmlns:inkscape="http://www.inkscape.org/namespaces/inkscape"
   fill="#000000"
   height="48"
   viewBox="0 0 24 24"
   width="48"
   id="svg3386"
   version="1.1"
   inkscape:version="0.91 r13725"
   sodipodi:docname="ic_tunnel_idle_48px.svg">
  <metadata
     id="metadata3396">
    <rdf:RDF>
      <cc:Work
         rdf:about="">
        <dc:format>image/svg+xml</dc:format>
        <dc:type
           rdf:resource="http://purl.org/dc/dcmitype/StillImage" />
        <dc:title></dc:title>
      </cc:Work>
    </rdf:RDF>
  </metadata>
  <defs
     id="defs3394" />
  <sodipodi:namedview
     pagecolor="#ffffff"
     bordercolor="#666666"
     borderopacity="1"
     objecttolerance="10"
     gridtolerance="10"
     guidetolerance="10"
     inkscape:pageopacity="0"
     inkscape:pageshadow="2"
     inkscape:window-width="1350"
     inkscape:window-height="877"
     id="namedview3392"
     showgrid="false"
     inkscape:zoom="8"
     inkscape:cx="0.53041041"
     inkscape:cy="28.644034"
     inkscape:window-x="0"
     inkscape:window-y="0"
     inkscape:window-maximized="1"
     inkscape:current-layer="layer2" />
  <path
     d="M0 0h24v24H0z"
     fill="none"
     id="path3388" />
  <path
     d="m 4,19.620973 2,-0.0039 -0.00773,-14.6196558 12.061146,0 0.04033,14.6235618 1.90625,0 L 20,4.9974172 C 20.000001,1.4974172 16.42,1 12,1 7.58,1 4,1.4974172 4,4.9974172 Z"
     id="path3390"
     inkscape:connector-curvature="0"
     inkscape:transform-center-x="0.072727273"
     inkscape:transform-center-y="0.43636364"
     sodipodi:nodetypes="ccccccsssc" />
  <g
     inkscape:groupmode="layer"
     id="layer2"
     inkscape:label="Layer 1"
     style="display:inline">
    <path
       inkscape:connector-curvature="0"
       d="m 9.09375,11.03875 3.63,0 -3.63,4.2 0,1.8 6,0 0,-2 -3.63,0 3.63,-4.2 0,-1.8 -6,0 z"
       id="path3712"
       sodipodi:nodetypes="ccccccccccc" />
  </g>
</svg>
